<?xml version="1.0" encoding="utf-8"?>
<svg fill="#000000" width="800px" height="800px" viewBox="0 0 256 256" id="Flat" xmlns="http://www.w3.org/2000/svg">
  <path d="M128,236A108,108,0,1,1,236,128,108.12225,108.12225,0,0,1,128,236Zm0-192a84,84,0,1,0,84,84A84.09522,84.09522,0,0,0,128,44Z"/>
</svg>
